{
    "id": "org.pipewire.Helvum",
    "runtime": "org.gnome.Platform",
    "runtime-version": "45",
    "sdk": "org.gnome.Sdk",
    "sdk-extensions": [
        "org.freedesktop.Sdk.Extension.rust-stable",
        "org.freedesktop.Sdk.Extension.llvm16"
    ],
    "command": "helvum",
    "finish-args": [
        "--socket=fallback-x11",
        "--socket=wayland",
        "--device=dri",
        "--share=ipc",
        "--filesystem=xdg-run/pipewire-0"
    ],
    "build-options": {
        "append-path": "/usr/lib/sdk/rust-stable/bin:/usr/lib/sdk/llvm16/bin",
        "prepend-ld-library-path": "/usr/lib/sdk/llvm16/lib",
        "build-args": [
            "--share=network"
        ]
    },
    "modules": [
        {
            "name": "Helvum",
            "buildsystem": "meson",
            "sources": [
                {
                    "type": "dir",
                    "path": "../"
                }
            ],
            "config-opts": [
                "-Dprofile=development"
            ]
        }
    ]
}
